{
  "project_info": {
    "project_number": "1043167899746",
    "firebase_url": "https://runproject-676cd.firebaseio.com",
    "project_id": "runproject-676cd",
    "storage_bucket": "runproject-676cd.appspot.com"
  },
  "client": [
    {
      "client_info": {
        "mobilesdk_app_id": "1:1043167899746:android:b013df05537fea8b",
        "android_client_info": {
          "package_name": "com.example.blb.run"
        }
      },
      "oauth_client": [
        {
          "client_id": "1043167899746-fhhjvo0a4sg9v9n86rtvu0o29rsu0por.apps.googleusercontent.com",
          "client_type": 1,
          "android_info": {
            "package_name": "com.example.blb.run",
            "certificate_hash": "831f7eb25c7278f675d8c41f40161c5e15617018"
          }
        },
        {
          "client_id": "1043167899746-4g8m40p3k2avemv825sn2nlb5soodfrt.apps.googleusercontent.com",
          "client_type": 3
        }
      ],
      "api_key": [
        {
          "current_key": "AIzaSyB92BEzwVu5x_QrSZSXdY6NIvPUfPbw9sQ"
        }
      ],
      "services": {
        "analytics_service": {
          "status": 1
        },
        "appinvite_service": {
          "status": 2,
          "other_platform_oauth_client": [
            {
              "client_id": "1043167899746-4g8m40p3k2avemv825sn2nlb5soodfrt.apps.googleusercontent.com",
              "client_type": 3
            }
          ]
        },
        "ads_service": {
          "status": 2
        }
      }
    }
  ],
  "configuration_version": "1"
}